dump.vcd
$date
	Mon Apr  6 17:39:22 2026
$end
$version
	Icarus Verilog
$end
$timescale
	1s
$end
$scope module tb_cla_16 $end
$var wire 16 ! sum [15:0] $end
$var wire 1 " over_under $end
$var wire 1 # cout $end
$var reg 16 $ a [15:0] $end
$var reg 16 % b [15:0] $end
$var reg 1 & cin $end
$var reg 17 ' expected [16:0] $end
$scope module uut $end
$var wire 1 & Cin $end
$var wire 16 ( a [15:0] $end
$var wire 16 ) b [15:0] $end
$var wire 1 " overflow $end
$var wire 16 * sum [15:0] $end
$var wire 1 # Cout $end
$var wire 5 + C [4:0] $end
$scope module u0 $end
$var wire 1 , Cin $end
$var wire 4 - G [3:0] $end
$var wire 4 . P [3:0] $end
$var wire 4 / a [3:0] $end
$var wire 4 0 b [3:0] $end
$var wire 4 1 sum [3:0] $end
$var wire 1 2 Cout $end
$var wire 5 3 C [4:0] $end
$upscope $end
$scope module u1 $end
$var wire 1 4 Cin $end
$var wire 4 5 G [3:0] $end
$var wire 4 6 P [3:0] $end
$var wire 4 7 a [3:0] $end
$var wire 4 8 b [3:0] $end
$var wire 4 9 sum [3:0] $end
$var wire 1 : Cout $end
$var wire 5 ; C [4:0] $end
$upscope $end
$scope module u2 $end
$var wire 1 < Cin $end
$var wire 4 = G [3:0] $end
$var wire 4 > P [3:0] $end
$var wire 4 ? a [3:0] $end
$var wire 4 @ b [3:0] $end
$var wire 4 A sum [3:0] $end
$var wire 1 B Cout $end
$var wire 5 C C [4:0] $end
$upscope $end
$scope module u3 $end
$var wire 1 D Cin $end
$var wire 4 E G [3:0] $end
$var wire 4 F P [3:0] $end
$var wire 4 G a [3:0] $end
$var wire 4 H b [3:0] $end
$var wire 4 I sum [3:0] $end
$var wire 1 J Cout $end
$var wire 5 K C [4:0] $end
$upscope $end
$upscope $end
$scope task testa $end
$upscope $end
$upscope $end
$enddefinitions $end
$comment Show the parameter values. $end
$dumpall
$end
#0
$dumpvars
b0 K
0J
b0 I
b0 H
b0 G
b0 F
b0 E
0D
b0 C
0B
b0 A
b0 @
b0 ?
b0 >
b0 =
0<
b0 ;
0:
b0 9
b0 8
b0 7
b0 6
b0 5
04
b10 3
02
b10 1
b1 0
b1 /
b0 .
b1 -
0,
b0 +
b10 *
b1 )
b1 (
bx '
0&
b1 %
b1 $
0#
0"
b10 !
$end
#1
1#
1J
b11111 K
1D
1B
b11111 C
1<
1:
b11111 ;
14
b11110 +
12
b11110 3
b0 1
b0 9
b0 A
b0 !
b0 *
b0 I
b1110 .
b1111 6
b1111 >
b1111 F
b1111 /
b1111 7
b1111 ?
b1111 G
b1111111111111111 $
b1111111111111111 (
b10 '
#2
0#
0J
b1111 I
b0 K
0D
0B
b1111 A
b0 C
0<
0:
b1111 9
b0 ;
04
b0 +
02
b0 3
b1111111111111111 !
b1111111111111111 *
b1111 1
b0 -
b1111 .
b101 0
b101 8
b101 @
b101 H
b1010 /
b1010 7
b1010 ?
b1010 G
b101010101010101 %
b101010101010101 )
b1010101010101010 $
b1010101010101010 (
b10000000000000000 '
#3
1D
1B
b11000 C
b1111 K
b110 1
b1010 9
b11 A
b1001001110100110 !
b1001001110100110 *
b1001 I
1"
b101 .
b1010 6
b100 =
b1011 >
b1 E
b110 F
b11 3
1,
b1 0
b1000 8
b1110 @
b100 /
b10 7
b101 ?
b11 G
b1001 +
1&
b101111010000001 %
b101111010000001 )
b11010100100100 $
b11010100100100 (
b1111111111111111 '
#4
b1 ;
14
12
b1111 K
1D
b1011 +
1B
b11111 3
b11100 C
b1 1
b111 9
b1 A
b1101000101110001 !
b1101000101110001 *
b1101 I
b1 -
b1110 .
b110 6
b10 =
b1101 >
b101 E
b10 F
b1101 0
b0 8
b1011 @
b111 H
b11 /
b110 7
b110 ?
b101 G
b111101100001101 %
b111101100001101 )
b101011001100011 $
b101011001100011 (
b1001001110100110 '
#5
04
0D
0#
02
0B
b1 +
0J
b0 ;
b1111 3
b0 K
b0 C
b111 9
b1000 1
b110 A
b1101011001111000 !
b1101011001111000 *
b1101 I
0"
b111 6
b0 -
b111 .
b0 =
b110 >
b0 E
b1101 F
b10 0
b1 8
b10 @
b101 H
b101 /
b100 ?
b1000 G
b101001000010010 %
b101001000010010 )
b1000010001100101 $
b1000010001100101 (
b1101000101110001 '
#6
b1000 9
b1111 ;
14
12
1#
0"
b11111 3
b10011 +
1J
b10 C
b11000 K
b100 1
b1110 A
b1011111010000100 !
b1011111010000100 *
b1011 I
b100 -
b1011 .
b1 =
b1100 >
b1100 E
b11 F
b110 0
b111 8
b1 @
b1111 H
b1101 /
b0 7
b1101 ?
b1100 G
b1111000101110110 %
b1111000101110110 )
b1100110100001101 $
b1100110100001101 (
b1101011001111000 '
#7
1<
b11011 3
b10111 +
1:
b10001 ;
b1111 C
b11110 K
b1010 1
b111 9
b1111 A
b100111101111010 !
b100111101111010 *
b100 I
b1100 -
b1 .
b1000 5
b110 6
b111 =
b0 >
b101 E
b1010 F
b1100 0
b1000 8
b111 @
b1110 7
b111 ?
b101 G
b1111011110001100 %
b1111011110001100 )
b101011111101101 $
b101011111101101 (
b11011111010000100 '
#8
b10100111101111010 '
